<?xml version="1.0" encoding="utf-8"?>
<!-- Generator: Adobe Illustrator 19.0.0, SVG Export Plug-In . SVG Version: 6.00 Build 0)  -->
<svg version="1.1" id="Layer_1" xmlns="http://www.w3.org/2000/svg" xmlns:xlink="http://www.w3.org/1999/xlink" x="0px" y="0px"
	 viewBox="0 0 70 47.5" style="enable-background:new 0 0 70 47.5;" xml:space="preserve">
<g id="XMLID_15_">
	<path id="XMLID_16_" d="M30.7,6.7v2.4c-4.1,1.3-7.2,3.2-9.5,5.9c-2.3,2.7-3.4,5.4-3.4,8.3c0,0.6,0.1,1.1,0.4,1.4
		c0.2,0.2,0.3,0.3,0.5,0.3c0.2,0,0.4-0.1,0.8-0.3c1.3-0.8,2.8-1.1,4.7-1.1c2.2,0,4.2,0.8,5.9,2.3c1.7,1.5,2.6,3.3,2.6,5.5
		c0,2.2-1,4.1-2.9,5.8c-2,1.7-4.3,2.5-7.2,2.5c-3.3,0-6.1-1.1-8.4-3.4c-2.4-2.2-3.5-5.3-3.5-9.1c0-4.4,1.6-8.4,4.8-11.9
		C18.6,11.7,23.7,8.9,30.7,6.7z M58.7,6.7v2.4c-4,1.3-7.2,3.2-9.5,5.9c-2.3,2.7-3.5,5.4-3.5,8.3c0,0.6,0.1,1.1,0.4,1.4
		c0.2,0.2,0.3,0.3,0.5,0.3c0.2,0,0.5-0.1,0.8-0.3c1.3-0.8,2.8-1.1,4.7-1.1c2.2,0,4.2,0.8,5.9,2.3c1.7,1.5,2.6,3.3,2.6,5.5
		c0,2.2-1,4.1-2.9,5.8c-2,1.7-4.3,2.5-7.2,2.5c-3.3,0-6.1-1.1-8.4-3.4c-2.4-2.2-3.5-5.3-3.5-9.1c0-4.4,1.6-8.4,4.8-11.9
		C46.6,11.7,51.7,8.9,58.7,6.7z"/>
</g>
</svg>
