<?xml version="1.0" encoding="utf-8"?>
<!-- Generator: Adobe Illustrator 19.0.0, SVG Export Plug-In . SVG Version: 6.00 Build 0)  -->
<svg version="1.1" id="Renren" xmlns="http://www.w3.org/2000/svg" xmlns:xlink="http://www.w3.org/1999/xlink" x="0px" y="0px"
	 viewBox="-295 387 20 20" style="enable-background:new -295 387 20 20;" xml:space="preserve">
<style type="text/css">
	.st0{fill:#FFFFFF;}
</style>
<path class="st0" d="M-286.5,387.9c-4.4,0.7-7.7,4.5-7.7,9.1c0,2.3,0.8,4.3,2.2,5.9c3.2-1.6,5.5-5.1,5.5-9.2
	C-286.5,393.7-286.5,387.9-286.5,387.9z M-285,399.3c-0.6,2.4-2.3,4.4-4.4,5.7c1.3,0.7,2.8,1.1,4.4,1.1c1.6,0,3.1-0.4,4.4-1.1
	C-282.7,403.7-284.4,401.6-285,399.3z M-283.5,393.6c0,4.1,2.3,7.7,5.5,9.2c1.4-1.6,2.2-3.7,2.2-5.9c0-4.6-3.3-8.3-7.7-9.1
	C-283.5,387.9-283.5,393.6-283.5,393.6z"/>
</svg>
